C:\Users\jarqu\Documents\NetBeansProjects\mavenproject1\CalculaIntereses\src\main\java\com\athorznet\calculaintereses\resources\JavaEE8Resource.java
C:\Users\jarqu\Documents\NetBeansProjects\mavenproject1\CalculaIntereses\src\main\java\root\model\CalcIntSimp.java
C:\Users\jarqu\Documents\NetBeansProjects\mavenproject1\CalculaIntereses\src\main\java\root\controller\Controller.java
C:\Users\jarqu\Documents\NetBeansProjects\mavenproject1\CalculaIntereses\src\main\java\com\athorznet\calculaintereses\JAXRSConfiguration.java
